(footprint "LOGO" (version 20221018) (generator bitmap2component)
  (layer "F.Cu")
  (attr board_only exclude_from_pos_files exclude_from_bom)
  (fp_text reference "G***" (at 0 0) (layer "F.SilkS")
      (effects (font (size 1.5 1.5) (thickness 0.3)))
    (tstamp f6191531-6537-442e-89fc-54bc33c3acb3)
  )
  (fp_text value "LOGO" (at 0.75 0) (layer "F.SilkS") hide
      (effects (font (size 1.5 1.5) (thickness 0.3)))
    (tstamp 7c1a4e19-b56d-4f13-b27d-278937d06228)
  )
  (fp_poly
    (pts
      (xy 8.005111 0.000000)
      (xy 8.005111 8.005111)
      (xy 0.000000 8.005111)
      (xy -8.005110 8.005111)
      (xy -8.005110 3.245315)
      (xy -6.274276 3.245315)
      (xy -6.274276 4.759796)
      (xy -6.274276 6.274276)
      (xy -4.759795 6.274276)
      (xy -3.245315 6.274276)
      (xy -3.245315 4.759796)
      (xy -3.245315 3.245315)
      (xy -4.759795 3.245315)
      (xy -6.274276 3.245315)
      (xy -8.005110 3.245315)
      (xy -8.005110 2.812607)
      (xy -6.274276 2.812607)
      (xy -5.841567 2.812607)
      (xy -5.408858 2.812607)
      (xy -5.408858 2.596252)
      (xy -5.408858 2.379898)
      (xy -4.976150 2.379898)
      (xy -4.543441 2.379898)
      (xy -4.543441 2.596252)
      (xy -4.543441 2.812607)
      (xy -4.327087 2.812607)
      (xy -4.110732 2.812607)
      (xy -4.110732 2.379898)
      (xy -3.678024 2.379898)
      (xy -3.678024 2.596252)
      (xy -3.678024 2.812607)
      (xy -3.461669 2.812607)
      (xy -3.245315 2.812607)
      (xy -3.245315 2.596252)
      (xy -3.245315 2.379898)
      (xy -3.461669 2.379898)
      (xy -3.678024 2.379898)
      (xy -4.110732 2.379898)
      (xy -4.110732 1.947189)
      (xy -3.678024 1.947189)
      (xy -3.245315 1.947189)
      (xy -3.245315 1.730835)
      (xy -3.245315 1.514481)
      (xy -3.028961 1.514481)
      (xy -2.812606 1.514481)
      (xy -2.812606 1.081772)
      (xy -2.812606 0.649063)
      (xy -3.245315 0.649063)
      (xy -3.678024 0.649063)
      (xy -3.678024 0.865418)
      (xy -3.678024 1.081772)
      (xy -3.461669 1.081772)
      (xy -3.245315 1.081772)
      (xy -3.245315 1.298126)
      (xy -3.245315 1.514481)
      (xy -3.678024 1.514481)
      (xy -4.110732 1.514481)
      (xy -4.110732 1.730835)
      (xy -4.110732 1.947189)
      (xy -4.759795 1.947189)
      (xy -5.408858 1.947189)
      (xy -5.408858 1.730835)
      (xy -5.408858 1.514481)
      (xy -4.976150 1.514481)
      (xy -4.759795 1.514481)
      (xy -4.543441 1.514481)
      (xy -4.543441 1.298126)
      (xy -4.543441 1.081772)
      (xy -4.327087 1.081772)
      (xy -4.110732 1.081772)
      (xy -4.110732 0.865418)
      (xy -4.110732 0.649063)
      (xy -4.327087 0.649063)
      (xy -4.543441 0.649063)
      (xy -4.543441 0.865418)
      (xy -4.543441 1.081772)
      (xy -4.759795 1.081772)
      (xy -4.976150 1.081772)
      (xy -4.976150 1.298126)
      (xy -4.976150 1.514481)
      (xy -5.408858 1.514481)
      (xy -5.841567 1.514481)
      (xy -6.274276 1.514481)
      (xy -6.274276 1.730835)
      (xy -6.274276 1.947189)
      (xy -5.841567 1.947189)
      (xy -5.408858 1.947189)
      (xy -5.408858 2.163544)
      (xy -5.408858 2.379898)
      (xy -5.841567 2.379898)
      (xy -6.274276 2.379898)
      (xy -6.274276 2.596252)
      (xy -6.274276 2.812607)
      (xy -8.005110 2.812607)
      (xy -8.005110 0.649063)
      (xy -6.274276 0.649063)
      (xy -6.057921 0.649063)
      (xy -5.841567 0.649063)
      (xy -5.841567 0.432709)
      (xy -5.841567 0.216355)
      (xy -5.625213 0.216355)
      (xy -5.408858 0.216355)
      (xy -5.408858 0.432709)
      (xy -5.408858 0.649063)
      (xy -5.192504 0.649063)
      (xy -4.976150 0.649063)
      (xy -4.976150 0.432709)
      (xy -4.976150 0.216355)
      (xy -4.759795 0.216355)
      (xy -4.543441 0.216355)
      (xy -4.543441 -0.216354)
      (xy -4.543441 -0.649063)
      (xy -4.327087 -0.649063)
      (xy -4.110732 -0.649063)
      (xy -4.110732 -0.216354)
      (xy -4.110732 0.216355)
      (xy -3.678024 0.216355)
      (xy -3.245315 0.216355)
      (xy -3.245315 0.000000)
      (xy -3.245315 -0.216354)
      (xy -3.461669 -0.216354)
      (xy -3.678024 -0.216354)
      (xy -3.678024 -0.432708)
      (xy -3.678024 -0.649063)
      (xy -3.461669 -0.649063)
      (xy -3.245315 -0.649063)
      (xy -3.245315 -0.865417)
      (xy -3.245315 -1.081771)
      (xy -3.028961 -1.081771)
      (xy -2.812606 -1.081771)
      (xy -2.812606 -0.432708)
      (xy -2.812606 0.216355)
      (xy -2.596252 0.216355)
      (xy -2.379898 0.216355)
      (xy -2.379898 0.000000)
      (xy -2.379898 -0.216354)
      (xy -2.163543 -0.216354)
      (xy -1.947189 -0.216354)
      (xy -1.947189 0.216355)
      (xy -1.947189 0.649063)
      (xy -1.730835 0.649063)
      (xy -1.514480 0.649063)
      (xy -1.514480 0.865418)
      (xy -1.514480 1.081772)
      (xy -1.947189 1.081772)
      (xy -2.379898 1.081772)
      (xy -2.379898 1.298126)
      (xy -2.379898 1.514481)
      (xy -2.163543 1.514481)
      (xy -1.947189 1.514481)
      (xy -1.947189 1.730835)
      (xy -1.947189 1.947189)
      (xy -2.163543 1.947189)
      (xy -2.379898 1.947189)
      (xy -2.379898 2.379898)
      (xy -2.379898 2.812607)
      (xy -2.596252 2.812607)
      (xy -2.812606 2.812607)
      (xy -2.812606 3.245315)
      (xy -2.812606 3.678024)
      (xy -2.596252 3.678024)
      (xy -2.379898 3.678024)
      (xy -2.379898 3.894378)
      (xy -2.379898 4.110733)
      (xy -2.163543 4.110733)
      (xy -1.947189 4.110733)
      (xy -1.947189 4.327087)
      (xy -1.947189 4.543441)
      (xy -2.163543 4.543441)
      (xy -2.379898 4.543441)
      (xy -2.379898 4.759796)
      (xy -2.379898 4.976150)
      (xy -2.596252 4.976150)
      (xy -2.812606 4.976150)
      (xy -2.812606 5.192504)
      (xy -2.812606 5.408859)
      (xy -2.596252 5.408859)
      (xy -2.379898 5.408859)
      (xy -2.379898 5.625213)
      (xy -2.379898 5.841568)
      (xy -2.596252 5.841568)
      (xy -2.812606 5.841568)
      (xy -2.812606 6.057922)
      (xy -2.812606 6.274276)
      (xy -2.596252 6.274276)
      (xy -2.379898 6.274276)
      (xy -2.379898 6.057922)
      (xy -2.379898 5.841568)
      (xy -2.163543 5.841568)
      (xy -1.947189 5.841568)
      (xy -1.947189 6.057922)
      (xy -1.947189 6.274276)
      (xy -1.298126 6.274276)
      (xy -0.649063 6.274276)
      (xy -0.649063 6.057922)
      (xy -0.649063 5.841568)
      (xy -0.432708 5.841568)
      (xy -0.216354 5.841568)
      (xy -0.216354 6.057922)
      (xy -0.216354 6.274276)
      (xy 0.432709 6.274276)
      (xy 1.081772 6.274276)
      (xy 1.081772 6.057922)
      (xy 1.081772 5.841568)
      (xy 0.865418 5.841568)
      (xy 0.649063 5.841568)
      (xy 0.649063 5.408859)
      (xy 0.649063 4.976150)
      (xy 0.865418 4.976150)
      (xy 1.081772 4.976150)
      (xy 1.081772 5.192504)
      (xy 1.081772 5.408859)
      (xy 1.298126 5.408859)
      (xy 1.514481 5.408859)
      (xy 1.514481 5.625213)
      (xy 1.514481 5.841568)
      (xy 1.730835 5.841568)
      (xy 1.947189 5.841568)
      (xy 1.947189 5.408859)
      (xy 1.947189 4.976150)
      (xy 2.379898 4.976150)
      (xy 2.812607 4.976150)
      (xy 2.812607 5.192504)
      (xy 2.812607 5.408859)
      (xy 2.596252 5.408859)
      (xy 2.379898 5.408859)
      (xy 2.379898 5.841568)
      (xy 2.379898 6.274276)
      (xy 2.596252 6.274276)
      (xy 2.812607 6.274276)
      (xy 2.812607 5.841568)
      (xy 2.812607 5.408859)
      (xy 3.028961 5.408859)
      (xy 3.245315 5.408859)
      (xy 3.245315 4.976150)
      (xy 3.245315 4.543441)
      (xy 3.678024 4.543441)
      (xy 4.110733 4.543441)
      (xy 4.110733 4.976150)
      (xy 4.110733 5.408859)
      (xy 3.894378 5.408859)
      (xy 3.678024 5.408859)
      (xy 3.678024 5.625213)
      (xy 3.678024 5.841568)
      (xy 3.894378 5.841568)
      (xy 4.110733 5.841568)
      (xy 4.110733 6.057922)
      (xy 4.110733 6.274276)
      (xy 4.543441 6.274276)
      (xy 4.976150 6.274276)
      (xy 4.976150 5.841568)
      (xy 5.841568 5.841568)
      (xy 5.841568 6.057922)
      (xy 5.841568 6.274276)
      (xy 6.057922 6.274276)
      (xy 6.274276 6.274276)
      (xy 6.274276 6.057922)
      (xy 6.274276 5.841568)
      (xy 6.057922 5.841568)
      (xy 5.841568 5.841568)
      (xy 4.976150 5.841568)
      (xy 4.976150 5.408859)
      (xy 4.759796 5.408859)
      (xy 4.543441 5.408859)
      (xy 4.543441 5.192504)
      (xy 4.543441 4.976150)
      (xy 4.976150 4.976150)
      (xy 5.408859 4.976150)
      (xy 5.408859 5.192504)
      (xy 5.408859 5.408859)
      (xy 5.841568 5.408859)
      (xy 6.274276 5.408859)
      (xy 6.274276 4.110733)
      (xy 6.274276 2.812607)
      (xy 6.057922 2.812607)
      (xy 5.841568 2.812607)
      (xy 5.841568 2.596252)
      (xy 5.841568 2.379898)
      (xy 5.625213 2.379898)
      (xy 5.408859 2.379898)
      (xy 5.408859 2.596252)
      (xy 5.408859 2.812607)
      (xy 5.192504 2.812607)
      (xy 4.976150 2.812607)
      (xy 4.976150 2.596252)
      (xy 4.976150 2.379898)
      (xy 4.759796 2.379898)
      (xy 4.543441 2.379898)
      (xy 4.543441 2.163544)
      (xy 4.543441 1.947189)
      (xy 4.759796 1.947189)
      (xy 4.976150 1.947189)
      (xy 4.976150 1.730835)
      (xy 4.976150 1.514481)
      (xy 5.408859 1.514481)
      (xy 5.841568 1.514481)
      (xy 5.841568 1.730835)
      (xy 5.841568 1.947189)
      (xy 6.057922 1.947189)
      (xy 6.274276 1.947189)
      (xy 6.274276 1.298126)
      (xy 6.274276 0.649063)
      (xy 6.057922 0.649063)
      (xy 5.841568 0.649063)
      (xy 5.841568 0.865418)
      (xy 5.841568 1.081772)
      (xy 5.408859 1.081772)
      (xy 4.976150 1.081772)
      (xy 4.976150 1.298126)
      (xy 4.976150 1.514481)
      (xy 4.543441 1.514481)
      (xy 4.110733 1.514481)
      (xy 4.110733 1.298126)
      (xy 4.110733 1.081772)
      (xy 3.894378 1.081772)
      (xy 3.678024 1.081772)
      (xy 3.678024 0.865418)
      (xy 3.678024 0.649063)
      (xy 3.894378 0.649063)
      (xy 4.110733 0.649063)
      (xy 4.110733 0.432709)
      (xy 4.110733 0.216355)
      (xy 4.327087 0.216355)
      (xy 4.543441 0.216355)
      (xy 4.543441 0.000000)
      (xy 4.543441 -0.216354)
      (xy 5.408859 -0.216354)
      (xy 5.625213 -0.216354)
      (xy 5.841568 -0.216354)
      (xy 5.841568 0.000000)
      (xy 5.841568 0.216355)
      (xy 6.057922 0.216355)
      (xy 6.274276 0.216355)
      (xy 6.274276 -0.432708)
      (xy 6.274276 -1.081771)
      (xy 6.057922 -1.081771)
      (xy 5.841568 -1.081771)
      (xy 5.841568 -0.865417)
      (xy 5.841568 -0.649063)
      (xy 5.625213 -0.649063)
      (xy 5.408859 -0.649063)
      (xy 5.408859 -0.432708)
      (xy 5.408859 -0.216354)
      (xy 4.543441 -0.216354)
      (xy 4.327087 -0.216354)
      (xy 4.110733 -0.216354)
      (xy 4.110733 -0.649063)
      (xy 4.110733 -1.081771)
      (xy 4.543441 -1.081771)
      (xy 4.976150 -1.081771)
      (xy 4.976150 -1.298126)
      (xy 4.976150 -1.514480)
      (xy 5.192504 -1.514480)
      (xy 5.408859 -1.514480)
      (xy 5.408859 -1.730835)
      (xy 5.408859 -1.947189)
      (xy 5.625213 -1.947189)
      (xy 5.841568 -1.947189)
      (xy 5.841568 -1.730835)
      (xy 5.841568 -1.514480)
      (xy 6.057922 -1.514480)
      (xy 6.274276 -1.514480)
      (xy 6.274276 -2.163543)
      (xy 6.274276 -2.812606)
      (xy 6.057922 -2.812606)
      (xy 5.841568 -2.812606)
      (xy 5.841568 -2.596252)
      (xy 5.841568 -2.379898)
      (xy 5.625213 -2.379898)
      (xy 5.408859 -2.379898)
      (xy 5.408859 -2.596252)
      (xy 5.408859 -2.812606)
      (xy 5.192504 -2.812606)
      (xy 4.976150 -2.812606)
      (xy 4.976150 -2.596252)
      (xy 4.976150 -2.379898)
      (xy 5.192504 -2.379898)
      (xy 5.408859 -2.379898)
      (xy 5.408859 -2.163543)
      (xy 5.408859 -1.947189)
      (xy 4.759796 -1.947189)
      (xy 4.110733 -1.947189)
      (xy 4.110733 -2.379898)
      (xy 4.110733 -2.812606)
      (xy 3.894378 -2.812606)
      (xy 3.678024 -2.812606)
      (xy 3.678024 -2.596252)
      (xy 3.678024 -2.379898)
      (xy 3.461670 -2.379898)
      (xy 3.245315 -2.379898)
      (xy 3.245315 -2.163543)
      (xy 3.245315 -1.947189)
      (xy 3.028961 -1.947189)
      (xy 2.812607 -1.947189)
      (xy 2.812607 -2.379898)
      (xy 2.812607 -2.812606)
      (xy 2.596252 -2.812606)
      (xy 2.379898 -2.812606)
      (xy 2.379898 -3.028961)
      (xy 2.379898 -3.245315)
      (xy 2.596252 -3.245315)
      (xy 2.812607 -3.245315)
      (xy 2.812607 -3.678024)
      (xy 2.812607 -4.110732)
      (xy 2.596252 -4.110732)
      (xy 2.379898 -4.110732)
      (xy 2.379898 -3.678024)
      (xy 2.379898 -3.245315)
      (xy 2.163544 -3.245315)
      (xy 1.947189 -3.245315)
      (xy 1.947189 -3.894378)
      (xy 1.947189 -4.543441)
      (xy 2.163544 -4.543441)
      (xy 2.379898 -4.543441)
      (xy 2.379898 -4.759795)
      (xy 2.379898 -4.976150)
      (xy 2.596252 -4.976150)
      (xy 2.812607 -4.976150)
      (xy 2.812607 -5.192504)
      (xy 2.812607 -5.408858)
      (xy 2.379898 -5.408858)
      (xy 1.947189 -5.408858)
      (xy 1.947189 -5.625213)
      (xy 1.947189 -5.841567)
      (xy 1.730835 -5.841567)
      (xy 1.514481 -5.841567)
      (xy 1.514481 -5.625213)
      (xy 1.514481 -5.408858)
      (xy 1.298126 -5.408858)
      (xy 1.081772 -5.408858)
      (xy 1.081772 -4.976150)
      (xy 1.081772 -4.543441)
      (xy 0.865418 -4.543441)
      (xy 0.649063 -4.543441)
      (xy 0.649063 -4.759795)
      (xy 0.649063 -4.976150)
      (xy 0.432709 -4.976150)
      (xy 0.216355 -4.976150)
      (xy 0.216355 -4.543441)
      (xy 0.216355 -4.110732)
      (xy -0.216354 -4.110732)
      (xy -0.649063 -4.110732)
      (xy -0.649063 -3.894378)
      (xy -0.649063 -3.678024)
      (xy -0.865417 -3.678024)
      (xy -1.081771 -3.678024)
      (xy -1.081771 -4.110732)
      (xy -1.081771 -4.543441)
      (xy -0.865417 -4.543441)
      (xy -0.649063 -4.543441)
      (xy -0.649063 -4.759795)
      (xy -0.649063 -4.976150)
      (xy -0.432708 -4.976150)
      (xy -0.216354 -4.976150)
      (xy -0.216354 -5.192504)
      (xy -0.216354 -5.408858)
      (xy -0.432708 -5.408858)
      (xy -0.649063 -5.408858)
      (xy -0.649063 -5.625213)
      (xy -0.649063 -5.841567)
      (xy -0.216354 -5.841567)
      (xy 0.216355 -5.841567)
      (xy 0.216355 -5.625213)
      (xy 0.216355 -5.408858)
      (xy 0.432709 -5.408858)
      (xy 0.649063 -5.408858)
      (xy 0.649063 -5.841567)
      (xy 0.649063 -6.274276)
      (xy 1.081772 -6.274276)
      (xy 1.081772 -6.057921)
      (xy 1.081772 -5.841567)
      (xy 1.298126 -5.841567)
      (xy 1.514481 -5.841567)
      (xy 1.514481 -6.057921)
      (xy 1.514481 -6.274276)
      (xy 3.245315 -6.274276)
      (xy 3.245315 -4.759795)
      (xy 3.245315 -3.245315)
      (xy 4.759796 -3.245315)
      (xy 6.274276 -3.245315)
      (xy 6.274276 -4.759795)
      (xy 6.274276 -6.274276)
      (xy 4.759796 -6.274276)
      (xy 3.245315 -6.274276)
      (xy 1.514481 -6.274276)
      (xy 1.298126 -6.274276)
      (xy 1.081772 -6.274276)
      (xy 0.649063 -6.274276)
      (xy -1.081771 -6.274276)
      (xy -2.812606 -6.274276)
      (xy -2.812606 -6.057921)
      (xy -2.812606 -5.841567)
      (xy -2.596252 -5.841567)
      (xy -2.379898 -5.841567)
      (xy -2.379898 -5.625213)
      (xy -2.379898 -5.408858)
      (xy -2.596252 -5.408858)
      (xy -2.812606 -5.408858)
      (xy -2.812606 -5.192504)
      (xy -2.812606 -4.976150)
      (xy -2.596252 -4.976150)
      (xy -2.379898 -4.976150)
      (xy -2.379898 -4.543441)
      (xy -2.379898 -4.110732)
      (xy -2.596252 -4.110732)
      (xy -2.812606 -4.110732)
      (xy -2.812606 -3.678024)
      (xy -2.812606 -3.245315)
      (xy -2.596252 -3.245315)
      (xy -2.379898 -3.245315)
      (xy -2.379898 -3.678024)
      (xy -2.379898 -4.110732)
      (xy -2.163543 -4.110732)
      (xy -1.947189 -4.110732)
      (xy -1.947189 -4.543441)
      (xy -1.947189 -4.976150)
      (xy -1.730835 -4.976150)
      (xy -1.514480 -4.976150)
      (xy -1.514480 -4.327087)
      (xy -1.514480 -3.678024)
      (xy -1.730835 -3.678024)
      (xy -1.947189 -3.678024)
      (xy -1.947189 -3.461669)
      (xy -1.947189 -3.245315)
      (xy -1.730835 -3.245315)
      (xy -1.514480 -3.245315)
      (xy -1.514480 -3.028961)
      (xy -1.514480 -2.812606)
      (xy -1.947189 -2.812606)
      (xy -2.379898 -2.812606)
      (xy -2.379898 -2.596252)
      (xy -2.379898 -2.379898)
      (xy -2.596252 -2.379898)
      (xy -2.812606 -2.379898)
      (xy -2.812606 -2.596252)
      (xy -2.812606 -2.812606)
      (xy -3.245315 -2.812606)
      (xy -3.678024 -2.812606)
      (xy -3.678024 -2.596252)
      (xy -3.678024 -2.379898)
      (xy -3.894378 -2.379898)
      (xy -4.110732 -2.379898)
      (xy -4.110732 -2.163543)
      (xy -4.110732 -1.947189)
      (xy -4.327087 -1.947189)
      (xy -4.543441 -1.947189)
      (xy -4.543441 -2.163543)
      (xy -4.543441 -2.379898)
      (xy -4.759795 -2.379898)
      (xy -4.976150 -2.379898)
      (xy -4.976150 -2.596252)
      (xy -4.976150 -2.812606)
      (xy -5.192504 -2.812606)
      (xy -5.408858 -2.812606)
      (xy -5.408858 -2.379898)
      (xy -5.408858 -1.947189)
      (xy -5.625213 -1.947189)
      (xy -5.841567 -1.947189)
      (xy -5.841567 -1.730835)
      (xy -5.841567 -1.514480)
      (xy -6.057921 -1.514480)
      (xy -6.274276 -1.514480)
      (xy -6.274276 -1.298126)
      (xy -6.274276 -1.081771)
      (xy -6.057921 -1.081771)
      (xy -5.841567 -1.081771)
      (xy -5.841567 -0.865417)
      (xy -5.841567 -0.649063)
      (xy -6.057921 -0.649063)
      (xy -6.274276 -0.649063)
      (xy -6.274276 0.000000)
      (xy -6.274276 0.649063)
      (xy -8.005110 0.649063)
      (xy -8.005110 0.000000)
      (xy -8.005110 -2.812606)
      (xy -6.274276 -2.812606)
      (xy -6.274276 -2.596252)
      (xy -6.274276 -2.379898)
      (xy -6.057921 -2.379898)
      (xy -5.841567 -2.379898)
      (xy -5.841567 -2.596252)
      (xy -5.841567 -2.812606)
      (xy -6.057921 -2.812606)
      (xy -6.274276 -2.812606)
      (xy -8.005110 -2.812606)
      (xy -8.005110 -6.274276)
      (xy -6.274276 -6.274276)
      (xy -6.274276 -4.759795)
      (xy -6.274276 -3.245315)
      (xy -4.759795 -3.245315)
      (xy -3.245315 -3.245315)
      (xy -3.245315 -4.759795)
      (xy -3.245315 -6.274276)
      (xy -4.759795 -6.274276)
      (xy -6.274276 -6.274276)
      (xy -8.005110 -6.274276)
      (xy -8.005110 -8.005110)
      (xy 0.000000 -8.005110)
      (xy 8.005111 -8.005110)
    )

    (stroke (width 0.000000) (type solid)) (fill solid) (layer "F.SilkS") (tstamp 2d41bef4-e2da-4b62-bea5-3c985a730a0c))
  (fp_poly
    (pts
      (xy -3.678024 4.759796)
      (xy -3.678024 5.841568)
      (xy -4.759795 5.841568)
      (xy -5.841567 5.841568)
      (xy -5.841567 4.759796)
      (xy -5.841567 4.110733)
      (xy -5.408858 4.110733)
      (xy -5.408858 4.759796)
      (xy -5.408858 5.408859)
      (xy -4.759795 5.408859)
      (xy -4.110732 5.408859)
      (xy -4.110732 4.759796)
      (xy -4.110732 4.110733)
      (xy -4.759795 4.110733)
      (xy -5.408858 4.110733)
      (xy -5.841567 4.110733)
      (xy -5.841567 3.678024)
      (xy -4.759795 3.678024)
      (xy -3.678024 3.678024)
    )

    (stroke (width 0.000000) (type solid)) (fill solid) (layer "F.SilkS") (tstamp ecf48300-d0b8-487d-bba1-66c93dd326e2))
  (fp_poly
    (pts
      (xy -1.081771 5.408859)
      (xy -1.081771 5.841568)
      (xy -1.514480 5.841568)
      (xy -1.947189 5.841568)
      (xy -1.947189 5.408859)
      (xy -1.947189 4.976150)
      (xy -1.514480 4.976150)
      (xy -1.081771 4.976150)
    )

    (stroke (width 0.000000) (type solid)) (fill solid) (layer "F.SilkS") (tstamp 5c74fde3-4f57-4f10-9a6f-d4e36e324396))
  (fp_poly
    (pts
      (xy 1.514481 -1.298126)
      (xy 1.514481 -1.081771)
      (xy 1.730835 -1.081771)
      (xy 1.947189 -1.081771)
      (xy 1.947189 -0.865417)
      (xy 1.947189 -0.649063)
      (xy 1.730835 -0.649063)
      (xy 1.514481 -0.649063)
      (xy 1.514481 -0.216354)
      (xy 1.514481 0.216355)
      (xy 1.730835 0.216355)
      (xy 1.947189 0.216355)
      (xy 1.947189 0.432709)
      (xy 1.947189 0.649063)
      (xy 1.730835 0.649063)
      (xy 1.514481 0.649063)
      (xy 1.514481 0.865418)
      (xy 1.514481 1.081772)
      (xy 1.730835 1.081772)
      (xy 1.947189 1.081772)
      (xy 1.947189 0.865418)
      (xy 1.947189 0.649063)
      (xy 2.163544 0.649063)
      (xy 2.379898 0.649063)
      (xy 2.379898 0.865418)
      (xy 2.379898 1.081772)
      (xy 2.163544 1.081772)
      (xy 1.947189 1.081772)
      (xy 1.947189 1.514481)
      (xy 1.947189 1.947189)
      (xy 1.730835 1.947189)
      (xy 1.514481 1.947189)
      (xy 1.514481 2.163544)
      (xy 1.514481 2.379898)
      (xy 1.730835 2.379898)
      (xy 1.947189 2.379898)
      (xy 1.947189 2.163544)
      (xy 1.947189 1.947189)
      (xy 2.163544 1.947189)
      (xy 2.379898 1.947189)
      (xy 2.379898 1.514481)
      (xy 2.379898 1.081772)
      (xy 2.812607 1.081772)
      (xy 3.245315 1.081772)
      (xy 3.245315 1.298126)
      (xy 3.245315 1.514481)
      (xy 3.678024 1.514481)
      (xy 4.110733 1.514481)
      (xy 4.110733 1.947189)
      (xy 4.110733 2.379898)
      (xy 3.894378 2.379898)
      (xy 3.678024 2.379898)
      (xy 3.678024 2.163544)
      (xy 3.678024 1.947189)
      (xy 3.461670 1.947189)
      (xy 3.245315 1.947189)
      (xy 3.245315 2.163544)
      (xy 3.245315 2.379898)
      (xy 3.028961 2.379898)
      (xy 2.812607 2.379898)
      (xy 2.812607 2.163544)
      (xy 2.812607 1.947189)
      (xy 2.596252 1.947189)
      (xy 2.379898 1.947189)
      (xy 2.379898 2.812607)
      (xy 2.379898 3.678024)
      (xy 2.163544 3.678024)
      (xy 1.947189 3.678024)
      (xy 1.947189 3.461670)
      (xy 1.947189 3.245315)
      (xy 1.730835 3.245315)
      (xy 1.514481 3.245315)
      (xy 1.514481 3.678024)
      (xy 1.514481 4.110733)
      (xy 1.730835 4.110733)
      (xy 1.947189 4.110733)
      (xy 1.947189 4.543441)
      (xy 1.947189 4.976150)
      (xy 1.730835 4.976150)
      (xy 1.514481 4.976150)
      (xy 1.514481 4.759796)
      (xy 1.514481 4.543441)
      (xy 1.298126 4.543441)
      (xy 1.081772 4.543441)
      (xy 1.081772 4.327087)
      (xy 1.081772 4.110733)
      (xy 0.649063 4.110733)
      (xy 0.216355 4.110733)
      (xy 0.216355 4.759796)
      (xy 0.216355 5.408859)
      (xy -0.216354 5.408859)
      (xy -0.649063 5.408859)
      (xy -0.649063 5.192504)
      (xy -0.649063 4.976150)
      (xy -0.432708 4.976150)
      (xy -0.216354 4.976150)
      (xy -0.216354 4.327087)
      (xy -0.216354 3.678024)
      (xy -0.432708 3.678024)
      (xy -0.649063 3.678024)
      (xy -0.649063 4.110733)
      (xy -0.649063 4.543441)
      (xy -1.081771 4.543441)
      (xy -1.514480 4.543441)
      (xy -1.514480 4.327087)
      (xy -1.514480 4.110733)
      (xy -1.730835 4.110733)
      (xy -1.947189 4.110733)
      (xy -1.947189 3.678024)
      (xy -1.514480 3.678024)
      (xy -1.514480 3.894378)
      (xy -1.514480 4.110733)
      (xy -1.298126 4.110733)
      (xy -1.081771 4.110733)
      (xy -1.081771 3.894378)
      (xy -1.081771 3.678024)
      (xy -1.298126 3.678024)
      (xy -1.514480 3.678024)
      (xy -1.947189 3.678024)
      (xy -1.947189 3.245315)
      (xy -0.865417 3.245315)
      (xy 0.216355 3.245315)
      (xy 0.216355 3.461670)
      (xy 0.216355 3.678024)
      (xy 0.432709 3.678024)
      (xy 0.649063 3.678024)
      (xy 0.649063 3.461670)
      (xy 0.649063 3.245315)
      (xy 1.081772 3.245315)
      (xy 1.514481 3.245315)
      (xy 1.514481 3.028961)
      (xy 1.514481 2.812607)
      (xy 1.298126 2.812607)
      (xy 1.081772 2.812607)
      (xy 1.081772 2.163544)
      (xy 1.081772 1.514481)
      (xy 1.298126 1.514481)
      (xy 1.514481 1.514481)
      (xy 1.514481 1.298126)
      (xy 1.514481 1.081772)
      (xy 1.081772 1.081772)
      (xy 0.649063 1.081772)
      (xy 0.649063 1.298126)
      (xy 0.649063 1.514481)
      (xy 0.000000 1.514481)
      (xy -0.649063 1.514481)
      (xy -0.649063 1.730835)
      (xy -0.649063 1.947189)
      (xy -0.865417 1.947189)
      (xy -1.081771 1.947189)
      (xy -1.081771 2.163544)
      (xy -1.081771 2.379898)
      (xy -0.865417 2.379898)
      (xy -0.649063 2.379898)
      (xy -0.649063 2.163544)
      (xy -0.649063 1.947189)
      (xy -0.432708 1.947189)
      (xy -0.216354 1.947189)
      (xy -0.216354 2.163544)
      (xy -0.216354 2.379898)
      (xy -0.432708 2.379898)
      (xy -0.649063 2.379898)
      (xy -0.649063 2.596252)
      (xy -0.649063 2.812607)
      (xy -1.298126 2.812607)
      (xy -1.947189 2.812607)
      (xy -1.947189 2.379898)
      (xy -1.947189 1.947189)
      (xy -1.514480 1.947189)
      (xy -1.081771 1.947189)
      (xy -1.081771 1.730835)
      (xy -1.081771 1.514481)
      (xy -1.298126 1.514481)
      (xy -1.514480 1.514481)
      (xy -1.514480 1.298126)
      (xy -1.514480 1.081772)
      (xy -1.298126 1.081772)
      (xy -1.081771 1.081772)
      (xy -1.081771 1.298126)
      (xy -1.081771 1.514481)
      (xy -0.865417 1.514481)
      (xy -0.649063 1.514481)
      (xy -0.649063 1.298126)
      (xy -0.649063 1.081772)
      (xy -0.865417 1.081772)
      (xy -1.081771 1.081772)
      (xy -1.081771 0.865418)
      (xy -1.081771 0.649063)
      (xy -0.865417 0.649063)
      (xy -0.649063 0.649063)
      (xy -0.649063 0.865418)
      (xy -0.649063 1.081772)
      (xy -0.432708 1.081772)
      (xy -0.216354 1.081772)
      (xy -0.216354 0.649063)
      (xy -0.216354 0.216355)
      (xy -0.432708 0.216355)
      (xy -0.649063 0.216355)
      (xy -0.649063 0.000000)
      (xy -0.649063 -0.216354)
      (xy -0.216354 -0.216354)
      (xy 0.216355 -0.216354)
      (xy 0.216355 0.216355)
      (xy 0.216355 0.649063)
      (xy 0.649063 0.649063)
      (xy 1.081772 0.649063)
      (xy 1.081772 0.432709)
      (xy 1.081772 0.216355)
      (xy 0.865418 0.216355)
      (xy 0.649063 0.216355)
      (xy 0.649063 0.000000)
      (xy 0.649063 -0.216354)
      (xy 0.865418 -0.216354)
      (xy 1.081772 -0.216354)
      (xy 1.081772 -0.432708)
      (xy 1.081772 -0.649063)
      (xy 0.865418 -0.649063)
      (xy 0.649063 -0.649063)
      (xy 0.649063 -0.865417)
      (xy 0.649063 -1.081771)
      (xy 0.865418 -1.081771)
      (xy 1.081772 -1.081771)
      (xy 1.081772 -1.298126)
      (xy 1.081772 -1.514480)
      (xy 1.298126 -1.514480)
      (xy 1.514481 -1.514480)
    )

    (stroke (width 0.000000) (type solid)) (fill solid) (layer "F.SilkS") (tstamp 342051d7-71fd-4f99-831e-f2ea9621bb3e))
  (fp_poly
    (pts
      (xy -1.081771 0.432709)
      (xy -1.081771 0.649063)
      (xy -1.298126 0.649063)
      (xy -1.514480 0.649063)
      (xy -1.514480 0.432709)
      (xy -1.514480 0.216355)
      (xy -1.298126 0.216355)
      (xy -1.081771 0.216355)
    )

    (stroke (width 0.000000) (type solid)) (fill solid) (layer "F.SilkS") (tstamp d366dd5c-61ed-46e4-98e6-2e4726ead9f9))
  (fp_poly
    (pts
      (xy 0.649063 -3.678024)
      (xy 0.649063 -3.245315)
      (xy 0.432709 -3.245315)
      (xy 0.216355 -3.245315)
      (xy 0.216355 -2.596252)
      (xy 0.216355 -1.947189)
      (xy -0.216354 -1.947189)
      (xy -0.649063 -1.947189)
      (xy -0.649063 -2.163543)
      (xy -0.649063 -2.379898)
      (xy -1.081771 -2.379898)
      (xy -1.514480 -2.379898)
      (xy -1.514480 -2.163543)
      (xy -1.514480 -1.947189)
      (xy -1.298126 -1.947189)
      (xy -1.081771 -1.947189)
      (xy -1.081771 -1.514480)
      (xy -1.081771 -1.081771)
      (xy -0.865417 -1.081771)
      (xy -0.649063 -1.081771)
      (xy -0.649063 -1.298126)
      (xy -0.649063 -1.514480)
      (xy -0.432708 -1.514480)
      (xy -0.216354 -1.514480)
      (xy -0.216354 -1.298126)
      (xy -0.216354 -1.081771)
      (xy -0.432708 -1.081771)
      (xy -0.649063 -1.081771)
      (xy -0.649063 -0.649063)
      (xy -0.649063 -0.216354)
      (xy -1.081771 -0.216354)
      (xy -1.514480 -0.216354)
      (xy -1.514480 -0.865417)
      (xy -1.514480 -1.514480)
      (xy -1.730835 -1.514480)
      (xy -1.947189 -1.514480)
      (xy -1.947189 -1.298126)
      (xy -1.947189 -1.081771)
      (xy -2.379898 -1.081771)
      (xy -2.812606 -1.081771)
      (xy -2.812606 -1.298126)
      (xy -2.812606 -1.514480)
      (xy -2.379898 -1.514480)
      (xy -1.947189 -1.514480)
      (xy -1.947189 -1.730835)
      (xy -1.947189 -1.947189)
      (xy -2.163543 -1.947189)
      (xy -2.379898 -1.947189)
      (xy -2.379898 -2.163543)
      (xy -2.379898 -2.379898)
      (xy -1.947189 -2.379898)
      (xy -1.514480 -2.379898)
      (xy -1.514480 -2.596252)
      (xy -1.514480 -2.812606)
      (xy -1.298126 -2.812606)
      (xy -1.081771 -2.812606)
      (xy -1.081771 -3.028961)
      (xy -1.081771 -3.245315)
      (xy -1.298126 -3.245315)
      (xy -1.514480 -3.245315)
      (xy -1.514480 -3.461669)
      (xy -1.514480 -3.678024)
      (xy -1.298126 -3.678024)
      (xy -1.081771 -3.678024)
      (xy -1.081771 -3.461669)
      (xy -1.081771 -3.245315)
      (xy -0.865417 -3.245315)
      (xy -0.649063 -3.245315)
      (xy -0.649063 -2.812606)
      (xy -0.649063 -2.379898)
      (xy -0.432708 -2.379898)
      (xy -0.216354 -2.379898)
      (xy -0.216354 -2.812606)
      (xy -0.216354 -3.245315)
      (xy -0.432708 -3.245315)
      (xy -0.649063 -3.245315)
      (xy -0.649063 -3.461669)
      (xy -0.649063 -3.678024)
      (xy -0.432708 -3.678024)
      (xy -0.216354 -3.678024)
      (xy -0.216354 -3.461669)
      (xy -0.216354 -3.245315)
      (xy 0.000000 -3.245315)
      (xy 0.216355 -3.245315)
      (xy 0.216355 -3.678024)
      (xy 0.216355 -4.110732)
      (xy 0.432709 -4.110732)
      (xy 0.649063 -4.110732)
    )

    (stroke (width 0.000000) (type solid)) (fill solid) (layer "F.SilkS") (tstamp b511ff73-cc1d-4000-bb9b-274571fbf552))
  (fp_poly
    (pts
      (xy 1.514481 -3.678024)
      (xy 1.514481 -2.812606)
      (xy 1.730835 -2.812606)
      (xy 1.947189 -2.812606)
      (xy 1.947189 -2.379898)
      (xy 1.947189 -1.947189)
      (xy 1.514481 -1.947189)
      (xy 1.081772 -1.947189)
      (xy 1.081772 -1.730835)
      (xy 1.081772 -1.514480)
      (xy 0.865418 -1.514480)
      (xy 0.649063 -1.514480)
      (xy 0.649063 -1.730835)
      (xy 0.649063 -1.947189)
      (xy 0.865418 -1.947189)
      (xy 1.081772 -1.947189)
      (xy 1.081772 -3.245315)
      (xy 1.081772 -4.543441)
      (xy 1.298126 -4.543441)
      (xy 1.514481 -4.543441)
    )

    (stroke (width 0.000000) (type solid)) (fill solid) (layer "F.SilkS") (tstamp 990ef026-588c-41cb-9c87-8e41bc018900))
  (fp_poly
    (pts
      (xy 5.841568 4.759796)
      (xy 5.841568 4.976150)
      (xy 5.625213 4.976150)
      (xy 5.408859 4.976150)
      (xy 5.408859 4.759796)
      (xy 5.408859 4.543441)
      (xy 5.625213 4.543441)
      (xy 5.841568 4.543441)
    )

    (stroke (width 0.000000) (type solid)) (fill solid) (layer "F.SilkS") (tstamp e3c9ab0a-61c5-491d-8dd5-1ec28a216490))
  (fp_poly
    (pts
      (xy 5.841568 3.245315)
      (xy 5.841568 3.678024)
      (xy 5.625213 3.678024)
      (xy 5.408859 3.678024)
      (xy 5.408859 4.110733)
      (xy 5.408859 4.543441)
      (xy 5.192504 4.543441)
      (xy 4.976150 4.543441)
      (xy 4.976150 4.327087)
      (xy 4.976150 4.110733)
      (xy 4.759796 4.110733)
      (xy 4.543441 4.110733)
      (xy 4.543441 3.678024)
      (xy 4.543441 3.245315)
      (xy 4.976150 3.245315)
      (xy 5.408859 3.245315)
      (xy 5.408859 3.028961)
      (xy 5.408859 2.812607)
      (xy 5.625213 2.812607)
      (xy 5.841568 2.812607)
    )

    (stroke (width 0.000000) (type solid)) (fill solid) (layer "F.SilkS") (tstamp 59c839bd-1fca-4ba1-9043-837c1cd9366d))
  (fp_poly
    (pts
      (xy 4.110733 3.461670)
      (xy 4.110733 4.110733)
      (xy 3.461670 4.110733)
      (xy 2.812607 4.110733)
      (xy 2.812607 3.461670)
      (xy 2.812607 3.245315)
      (xy 3.245315 3.245315)
      (xy 3.245315 3.461670)
      (xy 3.245315 3.678024)
      (xy 3.461670 3.678024)
      (xy 3.678024 3.678024)
      (xy 3.678024 3.461670)
      (xy 3.678024 3.245315)
      (xy 3.461670 3.245315)
      (xy 3.245315 3.245315)
      (xy 2.812607 3.245315)
      (xy 2.812607 2.812607)
      (xy 3.461670 2.812607)
      (xy 4.110733 2.812607)
    )

    (stroke (width 0.000000) (type solid)) (fill solid) (layer "F.SilkS") (tstamp 0578a7fd-6e7e-4749-b481-e53ca8472d69))
  (fp_poly
    (pts
      (xy 0.649063 2.163544)
      (xy 0.649063 2.379898)
      (xy 0.432709 2.379898)
      (xy 0.216355 2.379898)
      (xy 0.216355 2.163544)
      (xy 0.216355 1.947189)
      (xy 0.432709 1.947189)
      (xy 0.649063 1.947189)
    )

    (stroke (width 0.000000) (type solid)) (fill solid) (layer "F.SilkS") (tstamp dcae93e8-610b-4156-892a-943915cd1a46))
  (fp_poly
    (pts
      (xy 3.245315 0.432709)
      (xy 3.245315 0.649063)
      (xy 3.028961 0.649063)
      (xy 2.812607 0.649063)
      (xy 2.812607 0.432709)
      (xy 2.812607 0.216355)
      (xy 3.028961 0.216355)
      (xy 3.245315 0.216355)
    )

    (stroke (width 0.000000) (type solid)) (fill solid) (layer "F.SilkS") (tstamp 53a18445-e612-42f2-9e3e-dfe86285c7f5))
  (fp_poly
    (pts
      (xy 2.812607 -1.514480)
      (xy 2.812607 -1.081771)
      (xy 3.028961 -1.081771)
      (xy 3.245315 -1.081771)
      (xy 3.245315 -1.298126)
      (xy 3.245315 -1.514480)
      (xy 3.461670 -1.514480)
      (xy 3.678024 -1.514480)
      (xy 3.678024 -1.298126)
      (xy 3.678024 -1.081771)
      (xy 3.461670 -1.081771)
      (xy 3.245315 -1.081771)
      (xy 3.245315 -0.649063)
      (xy 3.245315 -0.216354)
      (xy 3.028961 -0.216354)
      (xy 2.812607 -0.216354)
      (xy 2.812607 0.000000)
      (xy 2.812607 0.216355)
      (xy 2.596252 0.216355)
      (xy 2.379898 0.216355)
      (xy 2.379898 0.000000)
      (xy 2.379898 -0.216354)
      (xy 2.596252 -0.216354)
      (xy 2.812607 -0.216354)
      (xy 2.812607 -0.432708)
      (xy 2.812607 -0.649063)
      (xy 2.596252 -0.649063)
      (xy 2.379898 -0.649063)
      (xy 2.379898 -1.298126)
      (xy 2.379898 -1.947189)
      (xy 2.596252 -1.947189)
      (xy 2.812607 -1.947189)
    )

    (stroke (width 0.000000) (type solid)) (fill solid) (layer "F.SilkS") (tstamp 9439f9c1-5986-42df-93c8-a39e27a7afda))
  (fp_poly
    (pts
      (xy -4.976150 -0.432708)
      (xy -4.976150 0.216355)
      (xy -5.192504 0.216355)
      (xy -5.408858 0.216355)
      (xy -5.408858 -0.432708)
      (xy -5.408858 -1.081771)
      (xy -5.192504 -1.081771)
      (xy -4.976150 -1.081771)
    )

    (stroke (width 0.000000) (type solid)) (fill solid) (layer "F.SilkS") (tstamp 687a84ec-634e-4701-bfb3-7e89ecc44653))
  (fp_poly
    (pts
      (xy -5.408858 -1.298126)
      (xy -5.408858 -1.081771)
      (xy -5.625213 -1.081771)
      (xy -5.841567 -1.081771)
      (xy -5.841567 -1.298126)
      (xy -5.841567 -1.514480)
      (xy -5.625213 -1.514480)
      (xy -5.408858 -1.514480)
    )

    (stroke (width 0.000000) (type solid)) (fill solid) (layer "F.SilkS") (tstamp e76a5e31-a31e-42ac-8e9d-4cc870b716d4))
  (fp_poly
    (pts
      (xy -3.245315 -1.298126)
      (xy -3.245315 -1.081771)
      (xy -3.678024 -1.081771)
      (xy -4.110732 -1.081771)
      (xy -4.110732 -1.298126)
      (xy -4.110732 -1.514480)
      (xy -3.678024 -1.514480)
      (xy -3.245315 -1.514480)
    )

    (stroke (width 0.000000) (type solid)) (fill solid) (layer "F.SilkS") (tstamp cf28ab20-a945-4369-9f36-7db01111d655))
  (fp_poly
    (pts
      (xy -4.543441 -1.730835)
      (xy -4.543441 -1.514480)
      (xy -4.759795 -1.514480)
      (xy -4.976150 -1.514480)
      (xy -4.976150 -1.730835)
      (xy -4.976150 -1.947189)
      (xy -4.759795 -1.947189)
      (xy -4.543441 -1.947189)
    )

    (stroke (width 0.000000) (type solid)) (fill solid) (layer "F.SilkS") (tstamp 51b68ff4-2766-41dd-8ec0-aaaa891b9977))
  (fp_poly
    (pts
      (xy -3.245315 -2.163543)
      (xy -3.245315 -1.947189)
      (xy -3.461669 -1.947189)
      (xy -3.678024 -1.947189)
      (xy -3.678024 -2.163543)
      (xy -3.678024 -2.379898)
      (xy -3.461669 -2.379898)
      (xy -3.245315 -2.379898)
    )

    (stroke (width 0.000000) (type solid)) (fill solid) (layer "F.SilkS") (tstamp 55b4b94f-dac5-41ec-8fa3-6010ac36d36e))
  (fp_poly
    (pts
      (xy -1.081771 -5.408858)
      (xy -1.081771 -4.976150)
      (xy -1.298126 -4.976150)
      (xy -1.514480 -4.976150)
      (xy -1.514480 -5.408858)
      (xy -1.514480 -5.841567)
      (xy -1.298126 -5.841567)
      (xy -1.081771 -5.841567)
    )

    (stroke (width 0.000000) (type solid)) (fill solid) (layer "F.SilkS") (tstamp d9186fae-935d-492a-80f5-faae71925799))
  (fp_poly
    (pts
      (xy 1.947189 -5.192504)
      (xy 1.947189 -4.976150)
      (xy 1.730835 -4.976150)
      (xy 1.514481 -4.976150)
      (xy 1.514481 -5.192504)
      (xy 1.514481 -5.408858)
      (xy 1.730835 -5.408858)
      (xy 1.947189 -5.408858)
    )

    (stroke (width 0.000000) (type solid)) (fill solid) (layer "F.SilkS") (tstamp e06f8503-89b3-42f0-99c6-e5fb8761cf9b))
  (fp_poly
    (pts
      (xy -3.678024 -4.759795)
      (xy -3.678024 -3.678024)
      (xy -4.759795 -3.678024)
      (xy -5.841567 -3.678024)
      (xy -5.841567 -4.759795)
      (xy -5.841567 -5.408858)
      (xy -5.408858 -5.408858)
      (xy -5.408858 -4.759795)
      (xy -5.408858 -4.110732)
      (xy -4.759795 -4.110732)
      (xy -4.110732 -4.110732)
      (xy -4.110732 -4.759795)
      (xy -4.110732 -5.408858)
      (xy -4.759795 -5.408858)
      (xy -5.408858 -5.408858)
      (xy -5.841567 -5.408858)
      (xy -5.841567 -5.841567)
      (xy -4.759795 -5.841567)
      (xy -3.678024 -5.841567)
    )

    (stroke (width 0.000000) (type solid)) (fill solid) (layer "F.SilkS") (tstamp c1189df4-0a28-4783-88aa-5428c50fa0a1))
  (fp_poly
    (pts
      (xy 5.841568 -4.759795)
      (xy 5.841568 -3.678024)
      (xy 4.759796 -3.678024)
      (xy 3.678024 -3.678024)
      (xy 3.678024 -4.759795)
      (xy 3.678024 -5.408858)
      (xy 4.110733 -5.408858)
      (xy 4.110733 -4.759795)
      (xy 4.110733 -4.110732)
      (xy 4.759796 -4.110732)
      (xy 5.408859 -4.110732)
      (xy 5.408859 -4.759795)
      (xy 5.408859 -5.408858)
      (xy 4.759796 -5.408858)
      (xy 4.110733 -5.408858)
      (xy 3.678024 -5.408858)
      (xy 3.678024 -5.841567)
      (xy 4.759796 -5.841567)
      (xy 5.841568 -5.841567)
    )

    (stroke (width 0.000000) (type solid)) (fill solid) (layer "F.SilkS") (tstamp 53184f8d-15ee-4e85-bf08-4e049df97d09))
)
