(kicad_symbol_lib (version 20220914) (generator kicad_symbol_editor)
  (symbol "E32-433T20D" (pin_names (offset 1.016)) (in_bom yes) (on_board yes)
    (property "Reference" "U" (at 0 3.302 0)
      (effects (font (size 1.27 1.27)) (justify left))
    )
    (property "Value" "E32-433T20D" (at 0 1.27 0)
      (effects (font (size 1.27 1.27)) (justify left))
    )
    (property "Footprint" "" (at 0 0 0)
      (effects (font (size 1.27 1.27)) hide)
    )
    (property "Datasheet" "http://www.ebyte.com/en/downpdf.aspx?id=108" (at 0 0 0)
      (effects (font (size 1.27 1.27)))
    )
    (symbol "E32-433T20D_0_1"
      (rectangle (start 0 0) (end 21.59 -20.32)
        (stroke (width 0) (type solid))
        (fill (type none))
      )
    )
    (symbol "E32-433T20D_1_0"
      (pin no_connect line (at 24.13 -7.62 180) (length 2.54)
        (name "Fixing_Hole" (effects (font (size 1.27 1.27))))
        (number "8" (effects (font (size 1.27 1.27))))
      )
    )
    (symbol "E32-433T20D_1_1"
      (pin input line (at -2.54 -2.54 0) (length 2.54)
        (name "M0" (effects (font (size 1.27 1.27))))
        (number "1" (effects (font (size 1.27 1.27))))
      )
      (pin no_connect line (at 24.13 -2.54 180) (length 2.54)
        (name "Fixing_Hole" (effects (font (size 1.27 1.27))))
        (number "10" (effects (font (size 1.27 1.27))))
      )
      (pin input line (at -2.54 -5.08 0) (length 2.54)
        (name "M1" (effects (font (size 1.27 1.27))))
        (number "2" (effects (font (size 1.27 1.27))))
      )
      (pin input line (at -2.54 -7.62 0) (length 2.54)
        (name "RXD" (effects (font (size 1.27 1.27))))
        (number "3" (effects (font (size 1.27 1.27))))
      )
      (pin output line (at -2.54 -10.16 0) (length 2.54)
        (name "TXD" (effects (font (size 1.27 1.27))))
        (number "4" (effects (font (size 1.27 1.27))))
      )
      (pin output line (at -2.54 -12.7 0) (length 2.54)
        (name "AUX" (effects (font (size 1.27 1.27))))
        (number "5" (effects (font (size 1.27 1.27))))
      )
      (pin input line (at -2.54 -15.24 0) (length 2.54)
        (name "VCC" (effects (font (size 1.27 1.27))))
        (number "6" (effects (font (size 1.27 1.27))))
      )
      (pin input line (at -2.54 -17.78 0) (length 2.54)
        (name "GND" (effects (font (size 1.27 1.27))))
        (number "7" (effects (font (size 1.27 1.27))))
      )
      (pin no_connect line (at 24.13 -5.08 180) (length 2.54)
        (name "Fixing_Hole" (effects (font (size 1.27 1.27))))
        (number "9" (effects (font (size 1.27 1.27))))
      )
    )
  )
  (symbol "E32-868T20D" (extends "E32-433T20D")
    (property "Reference" "U" (at 0 3.302 0)
      (effects (font (size 1.27 1.27)) (justify left))
    )
    (property "Value" "E32-868T20D" (at 0 1.27 0)
      (effects (font (size 1.27 1.27)) (justify left))
    )
    (property "Footprint" "" (at 0 0 0)
      (effects (font (size 1.27 1.27)) hide)
    )
    (property "Datasheet" "http://www.ebyte.com/en/downpdf.aspx?id=131" (at 0 0 0)
      (effects (font (size 1.27 1.27)))
    )
  )
  (symbol "E32-915T20D" (extends "E32-433T20D")
    (property "Reference" "U" (at 0 3.302 0)
      (effects (font (size 1.27 1.27)) (justify left))
    )
    (property "Value" "E32-915T20D" (at 0 1.27 0)
      (effects (font (size 1.27 1.27)) (justify left))
    )
    (property "Footprint" "" (at 0 0 0)
      (effects (font (size 1.27 1.27)) hide)
    )
    (property "Datasheet" "http://www.ebyte.com/en/downpdf.aspx?id=108" (at 0 0 0)
      (effects (font (size 1.27 1.27)))
    )
  )
)
