(kicad_symbol_lib (version 20220914) (generator kicad_symbol_editor)
  (symbol "YAAJ_BluePill" (pin_names (offset 1.016)) (in_bom yes) (on_board yes)
    (property "Reference" "U" (at -13.97 24.13 0)
      (effects (font (size 1.27 1.27)))
    )
    (property "Value" "YAAJ_BluePill" (at 0 6.35 90)
      (effects (font (size 1.27 1.27)))
    )
    (property "Footprint" "" (at -1.905 24.13 90)
      (effects (font (size 1.27 1.27)) hide)
    )
    (property "Datasheet" "" (at -1.905 24.13 90)
      (effects (font (size 1.27 1.27)) hide)
    )
    (property "ki_keywords" "module blue pill STM32" (at 0 0 0)
      (effects (font (size 1.27 1.27)) hide)
    )
    (property "ki_description" "STM32 Blue Pill ; KLC compliant" (at 0 0 0)
      (effects (font (size 1.27 1.27)) hide)
    )
    (symbol "YAAJ_BluePill_0_0"
      (circle (center -15.748 -20.32) (radius 0.3556)
        (stroke (width 0) (type solid))
        (fill (type outline))
      )
      (circle (center -15.748 -17.78) (radius 0.3556)
        (stroke (width 0) (type solid))
        (fill (type outline))
      )
      (circle (center -15.748 -15.24) (radius 0.3556)
        (stroke (width 0) (type solid))
        (fill (type outline))
      )
      (circle (center -15.748 -12.7) (radius 0.3556)
        (stroke (width 0) (type solid))
        (fill (type outline))
      )
      (circle (center -15.748 -10.16) (radius 0.3556)
        (stroke (width 0) (type solid))
        (fill (type outline))
      )
      (circle (center -15.748 -7.62) (radius 0.3556)
        (stroke (width 0) (type solid))
        (fill (type outline))
      )
      (circle (center -15.748 -5.08) (radius 0.3556)
        (stroke (width 0) (type solid))
        (fill (type outline))
      )
      (circle (center -15.748 -2.54) (radius 0.3556)
        (stroke (width 0) (type solid))
        (fill (type outline))
      )
      (circle (center -15.748 0) (radius 0.3556)
        (stroke (width 0) (type solid))
        (fill (type outline))
      )
      (circle (center -15.748 2.54) (radius 0.3556)
        (stroke (width 0) (type solid))
        (fill (type outline))
      )
      (circle (center -15.748 5.08) (radius 0.3556)
        (stroke (width 0) (type solid))
        (fill (type outline))
      )
      (circle (center -15.748 7.62) (radius 0.3556)
        (stroke (width 0) (type solid))
        (fill (type outline))
      )
      (circle (center -15.748 10.16) (radius 0.3556)
        (stroke (width 0) (type solid))
        (fill (type outline))
      )
      (circle (center -15.748 12.7) (radius 0.3556)
        (stroke (width 0) (type solid))
        (fill (type outline))
      )
      (circle (center -15.748 15.24) (radius 0.3556)
        (stroke (width 0) (type solid))
        (fill (type outline))
      )
      (circle (center -15.748 20.32) (radius 0.3556)
        (stroke (width 0) (type solid))
        (fill (type outline))
      )
      (polyline
        (pts
          (xy 5.08 -24.638)
          (xy 5.715 -23.622)
          (xy 6.35 -24.638)
          (xy 5.08 -24.638)
          (xy 5.715 -23.749)
          (xy 6.223 -24.638)
          (xy 5.207 -24.511)
          (xy 5.715 -23.876)
          (xy 6.096 -24.638)
          (xy 5.334 -24.384)
          (xy 5.842 -24.003)
          (xy 5.969 -24.638)
          (xy 5.461 -24.257)
          (xy 5.969 -24.13)
          (xy 5.842 -24.511)
          (xy 5.588 -24.257)
          (xy 5.842 -24.384)
          (xy 5.715 -24.13)
        )
        (stroke (width 0) (type solid))
        (fill (type none))
      )
      (polyline
        (pts
          (xy 18.415 -18.161)
          (xy 19.05 -17.145)
          (xy 19.685 -18.161)
          (xy 18.415 -18.161)
          (xy 19.05 -17.272)
          (xy 19.558 -18.161)
          (xy 18.542 -18.034)
          (xy 19.05 -17.399)
          (xy 19.431 -18.161)
          (xy 18.669 -17.907)
          (xy 19.177 -17.526)
          (xy 19.304 -18.161)
          (xy 18.796 -17.78)
          (xy 19.304 -17.653)
          (xy 19.177 -18.034)
          (xy 18.923 -17.78)
          (xy 19.177 -17.907)
          (xy 19.05 -17.653)
        )
        (stroke (width 0) (type solid))
        (fill (type none))
      )
      (polyline
        (pts
          (xy 18.415 -15.621)
          (xy 19.05 -14.605)
          (xy 19.685 -15.621)
          (xy 18.415 -15.621)
          (xy 19.05 -14.732)
          (xy 19.558 -15.621)
          (xy 18.542 -15.494)
          (xy 19.05 -14.859)
          (xy 19.431 -15.621)
          (xy 18.669 -15.367)
          (xy 19.177 -14.986)
          (xy 19.304 -15.621)
          (xy 18.796 -15.24)
          (xy 19.304 -15.113)
          (xy 19.177 -15.494)
          (xy 18.923 -15.24)
          (xy 19.177 -15.367)
          (xy 19.05 -15.113)
        )
        (stroke (width 0) (type solid))
        (fill (type none))
      )
      (polyline
        (pts
          (xy 18.415 -13.081)
          (xy 19.05 -12.065)
          (xy 19.685 -13.081)
          (xy 18.415 -13.081)
          (xy 19.05 -12.192)
          (xy 19.558 -13.081)
          (xy 18.542 -12.954)
          (xy 19.05 -12.319)
          (xy 19.431 -13.081)
          (xy 18.669 -12.827)
          (xy 19.177 -12.446)
          (xy 19.304 -13.081)
          (xy 18.796 -12.7)
          (xy 19.304 -12.573)
          (xy 19.177 -12.954)
          (xy 18.923 -12.7)
          (xy 19.177 -12.827)
          (xy 19.05 -12.573)
        )
        (stroke (width 0) (type solid))
        (fill (type none))
      )
      (circle (center 5.715 -31.242) (radius 0.127)
        (stroke (width 0) (type solid))
        (fill (type outline))
      )
      (circle (center 5.715 -31.242) (radius 0.254)
        (stroke (width 0) (type solid))
        (fill (type none))
      )
      (circle (center 5.715 -31.242) (radius 0.3556)
        (stroke (width 0) (type solid))
        (fill (type none))
      )
      (circle (center 15.748 15.24) (radius 0.254)
        (stroke (width 0) (type solid))
        (fill (type outline))
      )
      (circle (center 15.748 15.24) (radius 0.3556)
        (stroke (width 0) (type solid))
        (fill (type none))
      )
      (circle (center 15.748 17.78) (radius 0.254)
        (stroke (width 0) (type solid))
        (fill (type outline))
      )
      (circle (center 15.748 17.78) (radius 0.3556)
        (stroke (width 0) (type solid))
        (fill (type none))
      )
      (text "30pF 2MHz" (at 11.176 -27.051 0)
        (effects (font (size 0.9906 0.9906)))
      )
      (text "5V tolerant" (at 11.176 -31.242 0)
        (effects (font (size 0.9906 0.9906)))
      )
      (text "ADC0" (at 7.747 -10.16 0)
        (effects (font (size 0.9906 0.9906)))
      )
      (text "ADC1" (at 7.747 -7.62 0)
        (effects (font (size 0.9906 0.9906)))
      )
      (text "ADC2" (at 7.747 -5.08 0)
        (effects (font (size 0.9906 0.9906)))
      )
      (text "ADC3" (at 7.747 -2.667 0)
        (effects (font (size 0.9906 0.9906)))
      )
      (text "ADC4" (at 7.747 0 0)
        (effects (font (size 0.9906 0.9906)))
      )
      (text "ADC8" (at 7.62 10.16 0)
        (effects (font (size 0.9906 0.9906)))
      )
      (text "ADC9" (at 7.62 12.7 0)
        (effects (font (size 0.9906 0.9906)))
      )
      (text "LED" (at 7.366 -17.653 0)
        (effects (font (size 0.9906 0.9906)))
      )
      (text "MISO1" (at 7.493 5.08 0)
        (effects (font (size 0.9906 0.9906)))
      )
      (text "MOSI1" (at 7.493 7.62 0)
        (effects (font (size 0.9906 0.9906)))
      )
      (text "NSS1" (at -6.858 -2.413 0)
        (effects (font (size 0.9906 0.9906)))
      )
      (text "PWM pin" (at 10.033 -29.21 0)
        (effects (font (size 0.9906 0.9906)))
      )
      (text "RX1" (at -7.366 4.953 0)
        (effects (font (size 0.9906 0.9906)))
      )
      (text "RX2" (at 3.81 -2.667 0)
        (effects (font (size 0.9906 0.9906)))
      )
      (text "RX3" (at 7.112 17.78 0)
        (effects (font (size 0.9906 0.9906)))
      )
      (text "SCK1" (at 7.747 2.54 0)
        (effects (font (size 0.9906 0.9906)))
      )
      (text "SCL1" (at -6.985 -12.573 0)
        (effects (font (size 0.9906 0.9906)))
      )
      (text "SDA1" (at -6.985 -15.24 0)
        (effects (font (size 0.9906 0.9906)))
      )
      (text "sink 3mA" (at 10.287 -24.003 0)
        (effects (font (size 0.9906 0.9906)))
      )
      (text "source 0mA" (at 11.303 -25.4 0)
        (effects (font (size 0.9906 0.9906)))
      )
      (text "TX1" (at -7.493 7.62 0)
        (effects (font (size 0.9906 0.9906)))
      )
      (text "TX2" (at 3.81 -5.08 0)
        (effects (font (size 0.9906 0.9906)))
      )
      (text "TX3" (at 7.239 15.24 0)
        (effects (font (size 0.9906 0.9906)))
      )
      (text "USB+" (at -6.731 0 0)
        (effects (font (size 0.9906 0.9906)))
      )
      (text "USB-" (at -6.731 2.54 0)
        (effects (font (size 0.9906 0.9906)))
      )
      (text "Y@@J" (at 13.6906 -22.1488 0)
        (effects (font (size 0.508 0.508)))
      )
    )
    (symbol "YAAJ_BluePill_0_1"
      (rectangle (start -15.24 22.86) (end 15.24 -22.86)
        (stroke (width 0) (type solid))
        (fill (type background))
      )
      (polyline
        (pts
          (xy -18.796 -20.32)
          (xy -18.796 -20.828)
          (xy -19.304 -20.828)
          (xy -19.304 -19.812)
          (xy -19.812 -19.812)
          (xy -19.812 -20.32)
        )
        (stroke (width 0) (type solid))
        (fill (type none))
      )
      (polyline
        (pts
          (xy -18.796 -17.78)
          (xy -18.796 -18.288)
          (xy -19.304 -18.288)
          (xy -19.304 -17.272)
          (xy -19.812 -17.272)
          (xy -19.812 -17.78)
        )
        (stroke (width 0) (type solid))
        (fill (type none))
      )
      (polyline
        (pts
          (xy -18.796 -15.24)
          (xy -18.796 -15.748)
          (xy -19.304 -15.748)
          (xy -19.304 -14.732)
          (xy -19.812 -14.732)
          (xy -19.812 -15.24)
        )
        (stroke (width 0) (type solid))
        (fill (type none))
      )
      (polyline
        (pts
          (xy -18.796 -12.7)
          (xy -18.796 -13.208)
          (xy -19.304 -13.208)
          (xy -19.304 -12.192)
          (xy -19.812 -12.192)
          (xy -19.812 -12.7)
        )
        (stroke (width 0) (type solid))
        (fill (type none))
      )
      (polyline
        (pts
          (xy -18.796 5.08)
          (xy -18.796 4.572)
          (xy -19.304 4.572)
          (xy -19.304 5.588)
          (xy -19.812 5.588)
          (xy -19.812 5.08)
        )
        (stroke (width 0) (type solid))
        (fill (type none))
      )
      (polyline
        (pts
          (xy -18.796 7.62)
          (xy -18.796 7.112)
          (xy -19.304 7.112)
          (xy -19.304 8.128)
          (xy -19.812 8.128)
          (xy -19.812 7.62)
        )
        (stroke (width 0) (type solid))
        (fill (type none))
      )
      (polyline
        (pts
          (xy -18.796 10.16)
          (xy -18.796 9.652)
          (xy -19.304 9.652)
          (xy -19.304 10.668)
          (xy -19.812 10.668)
          (xy -19.812 10.16)
        )
        (stroke (width 0) (type solid))
        (fill (type none))
      )
      (polyline
        (pts
          (xy 6.096 -29.21)
          (xy 6.096 -29.718)
          (xy 5.588 -29.718)
          (xy 5.588 -28.702)
          (xy 5.08 -28.702)
          (xy 5.08 -29.21)
        )
        (stroke (width 0) (type solid))
        (fill (type none))
      )
      (polyline
        (pts
          (xy 19.812 -10.16)
          (xy 19.812 -10.668)
          (xy 19.304 -10.668)
          (xy 19.304 -9.652)
          (xy 18.796 -9.652)
          (xy 18.796 -10.16)
        )
        (stroke (width 0) (type solid))
        (fill (type none))
      )
      (polyline
        (pts
          (xy 19.812 -7.62)
          (xy 19.812 -8.128)
          (xy 19.304 -8.128)
          (xy 19.304 -7.112)
          (xy 18.796 -7.112)
          (xy 18.796 -7.62)
        )
        (stroke (width 0) (type solid))
        (fill (type none))
      )
      (polyline
        (pts
          (xy 19.812 -5.08)
          (xy 19.812 -5.588)
          (xy 19.304 -5.588)
          (xy 19.304 -4.572)
          (xy 18.796 -4.572)
          (xy 18.796 -5.08)
        )
        (stroke (width 0) (type solid))
        (fill (type none))
      )
      (polyline
        (pts
          (xy 19.812 -2.54)
          (xy 19.812 -3.048)
          (xy 19.304 -3.048)
          (xy 19.304 -2.032)
          (xy 18.796 -2.032)
          (xy 18.796 -2.54)
        )
        (stroke (width 0) (type solid))
        (fill (type none))
      )
      (polyline
        (pts
          (xy 19.812 5.08)
          (xy 19.812 4.572)
          (xy 19.304 4.572)
          (xy 19.304 5.588)
          (xy 18.796 5.588)
          (xy 18.796 5.08)
        )
        (stroke (width 0) (type solid))
        (fill (type none))
      )
      (polyline
        (pts
          (xy 19.812 7.62)
          (xy 19.812 7.112)
          (xy 19.304 7.112)
          (xy 19.304 8.128)
          (xy 18.796 8.128)
          (xy 18.796 7.62)
        )
        (stroke (width 0) (type solid))
        (fill (type none))
      )
      (polyline
        (pts
          (xy 19.812 10.16)
          (xy 19.812 9.652)
          (xy 19.304 9.652)
          (xy 19.304 10.668)
          (xy 18.796 10.668)
          (xy 18.796 10.16)
        )
        (stroke (width 0) (type solid))
        (fill (type none))
      )
      (polyline
        (pts
          (xy 19.812 12.7)
          (xy 19.812 12.192)
          (xy 19.304 12.192)
          (xy 19.304 13.208)
          (xy 18.796 13.208)
          (xy 18.796 12.7)
        )
        (stroke (width 0) (type solid))
        (fill (type none))
      )
    )
    (symbol "YAAJ_BluePill_1_1"
      (circle (center -15.748 17.78) (radius 0.3556)
        (stroke (width 0) (type solid))
        (fill (type outline))
      )
      (pin bidirectional line (at -20.32 20.32 0) (length 5.08)
        (name "PB12" (effects (font (size 1.27 1.27))))
        (number "1" (effects (font (size 1.27 1.27))))
      )
      (pin bidirectional line (at -20.32 -2.54 0) (length 5.08)
        (name "PA15" (effects (font (size 1.27 1.27))))
        (number "10" (effects (font (size 1.27 1.27))))
      )
      (pin bidirectional line (at -20.32 -5.08 0) (length 5.08)
        (name "PB3" (effects (font (size 1.27 1.27))))
        (number "11" (effects (font (size 1.27 1.27))))
      )
      (pin bidirectional line (at -20.32 -7.62 0) (length 5.08)
        (name "PB4" (effects (font (size 1.27 1.27))))
        (number "12" (effects (font (size 1.27 1.27))))
      )
      (pin bidirectional line (at -20.32 -10.16 0) (length 5.08)
        (name "PB5" (effects (font (size 1.27 1.27))))
        (number "13" (effects (font (size 1.27 1.27))))
      )
      (pin bidirectional line (at -20.32 -12.7 0) (length 5.08)
        (name "PB6" (effects (font (size 1.27 1.27))))
        (number "14" (effects (font (size 1.27 1.27))))
      )
      (pin bidirectional line (at -20.32 -15.24 0) (length 5.08)
        (name "PB7" (effects (font (size 1.27 1.27))))
        (number "15" (effects (font (size 1.27 1.27))))
      )
      (pin bidirectional line (at -20.32 -17.78 0) (length 5.08)
        (name "PB8" (effects (font (size 1.27 1.27))))
        (number "16" (effects (font (size 1.27 1.27))))
      )
      (pin bidirectional line (at -20.32 -20.32 0) (length 5.08)
        (name "PB9" (effects (font (size 1.27 1.27))))
        (number "17" (effects (font (size 1.27 1.27))))
      )
      (pin power_in line (at -2.54 27.94 270) (length 5.08)
        (name "5V" (effects (font (size 1.27 1.27))))
        (number "18" (effects (font (size 1.27 1.27))))
      )
      (pin power_in line (at -5.08 -27.94 90) (length 5.08)
        (name "GND" (effects (font (size 1.27 1.27))))
        (number "19" (effects (font (size 1.27 1.27))))
      )
      (pin bidirectional line (at -20.32 17.78 0) (length 5.08)
        (name "PB13" (effects (font (size 1.27 1.27))))
        (number "2" (effects (font (size 1.27 1.27))))
      )
      (pin power_in line (at 0 27.94 270) (length 5.08)
        (name "3V3" (effects (font (size 1.27 1.27))))
        (number "20" (effects (font (size 1.27 1.27))))
      )
      (pin power_in line (at -5.08 27.94 270) (length 5.08)
        (name "VBat" (effects (font (size 1.27 1.27))))
        (number "21" (effects (font (size 1.27 1.27))))
      )
      (pin bidirectional line (at 20.32 -17.78 180) (length 5.08)
        (name "PC13" (effects (font (size 1.27 1.27))))
        (number "22" (effects (font (size 1.27 1.27))))
      )
      (pin bidirectional line (at 20.32 -15.24 180) (length 5.08)
        (name "PC14" (effects (font (size 1.27 1.27))))
        (number "23" (effects (font (size 1.27 1.27))))
      )
      (pin bidirectional line (at 20.32 -12.7 180) (length 5.08)
        (name "PC15" (effects (font (size 1.27 1.27))))
        (number "24" (effects (font (size 1.27 1.27))))
      )
      (pin bidirectional line (at 20.32 -10.16 180) (length 5.08)
        (name "PA0" (effects (font (size 1.27 1.27))))
        (number "25" (effects (font (size 1.27 1.27))))
      )
      (pin bidirectional line (at 20.32 -7.62 180) (length 5.08)
        (name "PA1" (effects (font (size 1.27 1.27))))
        (number "26" (effects (font (size 1.27 1.27))))
      )
      (pin bidirectional line (at 20.32 -5.08 180) (length 5.08)
        (name "PA2" (effects (font (size 1.27 1.27))))
        (number "27" (effects (font (size 1.27 1.27))))
      )
      (pin bidirectional line (at 20.32 -2.54 180) (length 5.08)
        (name "PA3" (effects (font (size 1.27 1.27))))
        (number "28" (effects (font (size 1.27 1.27))))
      )
      (pin bidirectional line (at 20.32 0 180) (length 5.08)
        (name "PA4" (effects (font (size 1.27 1.27))))
        (number "29" (effects (font (size 1.27 1.27))))
      )
      (pin bidirectional line (at -20.32 15.24 0) (length 5.08)
        (name "PB14" (effects (font (size 1.27 1.27))))
        (number "3" (effects (font (size 1.27 1.27))))
      )
      (pin bidirectional line (at 20.32 2.54 180) (length 5.08)
        (name "PA5" (effects (font (size 1.27 1.27))))
        (number "30" (effects (font (size 1.27 1.27))))
      )
      (pin bidirectional line (at 20.32 5.08 180) (length 5.08)
        (name "PA6" (effects (font (size 1.27 1.27))))
        (number "31" (effects (font (size 1.27 1.27))))
      )
      (pin bidirectional line (at 20.32 7.62 180) (length 5.08)
        (name "PA7" (effects (font (size 1.27 1.27))))
        (number "32" (effects (font (size 1.27 1.27))))
      )
      (pin bidirectional line (at 20.32 10.16 180) (length 5.08)
        (name "PB0" (effects (font (size 1.27 1.27))))
        (number "33" (effects (font (size 1.27 1.27))))
      )
      (pin bidirectional line (at 20.32 12.7 180) (length 5.08)
        (name "PB1" (effects (font (size 1.27 1.27))))
        (number "34" (effects (font (size 1.27 1.27))))
      )
      (pin bidirectional line (at 20.32 15.24 180) (length 5.08)
        (name "PB10" (effects (font (size 1.27 1.27))))
        (number "35" (effects (font (size 1.27 1.27))))
      )
      (pin bidirectional line (at 20.32 17.78 180) (length 5.08)
        (name "PB11" (effects (font (size 1.27 1.27))))
        (number "36" (effects (font (size 1.27 1.27))))
      )
      (pin input line (at 20.32 20.32 180) (length 5.08)
        (name "RST" (effects (font (size 1.27 1.27))))
        (number "37" (effects (font (size 1.27 1.27))))
      )
      (pin power_in line (at 2.54 27.94 270) (length 5.08)
        (name "3V3" (effects (font (size 1.27 1.27))))
        (number "38" (effects (font (size 1.27 1.27))))
      )
      (pin power_in line (at -2.54 -27.94 90) (length 5.08)
        (name "GND" (effects (font (size 1.27 1.27))))
        (number "39" (effects (font (size 1.27 1.27))))
      )
      (pin bidirectional line (at -20.32 12.7 0) (length 5.08)
        (name "PB15" (effects (font (size 1.27 1.27))))
        (number "4" (effects (font (size 1.27 1.27))))
      )
      (pin power_in line (at 0 -27.94 90) (length 5.08)
        (name "GND" (effects (font (size 1.27 1.27))))
        (number "40" (effects (font (size 1.27 1.27))))
      )
      (pin bidirectional line (at -20.32 10.16 0) (length 5.08)
        (name "PA8" (effects (font (size 1.27 1.27))))
        (number "5" (effects (font (size 1.27 1.27))))
      )
      (pin bidirectional line (at -20.32 7.62 0) (length 5.08)
        (name "PA9" (effects (font (size 1.27 1.27))))
        (number "6" (effects (font (size 1.27 1.27))))
      )
      (pin bidirectional line (at -20.32 5.08 0) (length 5.08)
        (name "PA10" (effects (font (size 1.27 1.27))))
        (number "7" (effects (font (size 1.27 1.27))))
      )
      (pin bidirectional line (at -20.32 2.54 0) (length 5.08)
        (name "PA11" (effects (font (size 1.27 1.27))))
        (number "8" (effects (font (size 1.27 1.27))))
      )
      (pin bidirectional line (at -20.32 0 0) (length 5.08)
        (name "PA12" (effects (font (size 1.27 1.27))))
        (number "9" (effects (font (size 1.27 1.27))))
      )
    )
  )
)
